\contentsline {paragraph}{Dscription:}{2}
\contentsline {section}{\numberline {1}Scope of the game}{2}
\contentsline {section}{\numberline {2}Physics Of The Game}{2}
\contentsline {paragraph}{T}{2}
\contentsline {subsection}{\numberline {2.1}Collisions}{2}
\contentsline {subsection}{\numberline {2.2}Ball-Paddle Interactions}{3}
