\relax 
\@writefile{toc}{\contentsline {paragraph}{Dscription:}{2}}
\@writefile{toc}{\contentsline {section}{\numberline {1}Scope of the game}{2}}
\@writefile{toc}{\contentsline {section}{\numberline {2}Physics Of The Game}{2}}
\@writefile{toc}{\contentsline {paragraph}{T}{2}}
\@writefile{toc}{\contentsline {subsection}{\numberline {2.1}Collisions}{2}}
\bibstyle{italics}
\bibdata{references}
\@writefile{toc}{\contentsline {subsection}{\numberline {2.2}Ball-Paddle Interactions}{3}}
